^C:\USERS\MATTHEWC\DOCUMENTS\VISUAL STUDIO 2013\PROJECTS\OPENGL PROJECT\OPENGL PROJECT\MAIN.CPP
/c /ZI /nologo /W3 /WX- /sdl /Od /Oy- /D _MBCS /Gm /EHsc /RTC1 /MDd /GS /fp:precise /Zc:wchar_t /Zc:forScope /Fo"DEBUG\\" /Fd"DEBUG\VC120.PDB" /Gd /TP /analyze- C:\USERS\MATTHEWC\DOCUMENTS\VISUAL STUDIO 2013\PROJECTS\OPENGL PROJECT\OPENGL PROJECT\MAIN.CPP
^C:\USERS\MATTHEWC\DOCUMENTS\VISUAL STUDIO 2013\PROJECTS\OPENGL PROJECT\OPENGL PROJECT\GLAD.C
/c /ZI /nologo /W3 /WX- /sdl /Od /Oy- /D _MBCS /Gm /EHsc /RTC1 /MDd /GS /fp:precise /Zc:wchar_t /Zc:forScope /Fo"DEBUG\\" /Fd"DEBUG\VC120.PDB" /Gd /TC /analyze- C:\USERS\MATTHEWC\DOCUMENTS\VISUAL STUDIO 2013\PROJECTS\OPENGL PROJECT\OPENGL PROJECT\GLAD.C
^C:\USERS\MATTHEWC\DOCUMENTS\VISUAL STUDIO 2013\PROJECTS\OPENGL PROJECT\OPENGL PROJECT\SHADER.CPP
/c /ZI /nologo /W3 /WX- /sdl /Od /Oy- /D _MBCS /Gm /EHsc /RTC1 /MDd /GS /fp:precise /Zc:wchar_t /Zc:forScope /Fo"DEBUG\\" /Fd"DEBUG\VC120.PDB" /Gd /TP /analyze- C:\USERS\MATTHEWC\DOCUMENTS\VISUAL STUDIO 2013\PROJECTS\OPENGL PROJECT\OPENGL PROJECT\SHADER.CPP
^C:\USERS\MATTHEWC\DOCUMENTS\VISUAL STUDIO 2013\PROJECTS\OPENGL PROJECT\OPENGL PROJECT\RAINBOWTRIANGLE.CPP
/c /ZI /nologo /W3 /WX- /sdl /Od /Oy- /D _MBCS /Gm /EHsc /RTC1 /MDd /GS /fp:precise /Zc:wchar_t /Zc:forScope /Fo"DEBUG\\" /Fd"DEBUG\VC120.PDB" /Gd /TP /analyze- C:\USERS\MATTHEWC\DOCUMENTS\VISUAL STUDIO 2013\PROJECTS\OPENGL PROJECT\OPENGL PROJECT\RAINBOWTRIANGLE.CPP
^C:\USERS\MATTHEWC\DOCUMENTS\VISUAL STUDIO 2013\PROJECTS\OPENGL PROJECT\OPENGL PROJECT\CUBE.CPP
/c /ZI /nologo /W3 /WX- /sdl /Od /Oy- /D _MBCS /Gm /EHsc /RTC1 /MDd /GS /fp:precise /Zc:wchar_t /Zc:forScope /Fo"DEBUG\\" /Fd"DEBUG\VC120.PDB" /Gd /TP /analyze- C:\USERS\MATTHEWC\DOCUMENTS\VISUAL STUDIO 2013\PROJECTS\OPENGL PROJECT\OPENGL PROJECT\CUBE.CPP
^D:\USERS\MATTHEWC\DOWNLOADS\OPENGL+PROJECT+LIGHT3\OPENGL PROJECT\OPENGL PROJECT\CUBE.CPP
/c /ZI /nologo /W3 /WX- /sdl /Od /Oy- /D _MBCS /Gm /EHsc /RTC1 /MDd /GS /fp:precise /Zc:wchar_t /Zc:forScope /Fo"DEBUG\\" /Fd"DEBUG\VC120.PDB" /Gd /TP /analyze- D:\USERS\MATTHEWC\DOWNLOADS\OPENGL+PROJECT+LIGHT3\OPENGL PROJECT\OPENGL PROJECT\CUBE.CPP
^D:\USERS\MATTHEWC\DOWNLOADS\OPENGL+PROJECT+LIGHT3\OPENGL PROJECT\OPENGL PROJECT\MAIN.CPP
/c /ZI /nologo /W3 /WX- /sdl /Od /Oy- /D _MBCS /Gm /EHsc /RTC1 /MDd /GS /fp:precise /Zc:wchar_t /Zc:forScope /Fo"DEBUG\\" /Fd"DEBUG\VC120.PDB" /Gd /TP /analyze- D:\USERS\MATTHEWC\DOWNLOADS\OPENGL+PROJECT+LIGHT3\OPENGL PROJECT\OPENGL PROJECT\MAIN.CPP
^D:\USERS\MATTHEWC\DOWNLOADS\OPENGL+PROJECT+LIGHT3\OPENGL PROJECT\OPENGL PROJECT\RAINBOWTRIANGLE.CPP
/c /ZI /nologo /W3 /WX- /sdl /Od /Oy- /D _MBCS /Gm /EHsc /RTC1 /MDd /GS /fp:precise /Zc:wchar_t /Zc:forScope /Fo"DEBUG\\" /Fd"DEBUG\VC120.PDB" /Gd /TP /analyze- D:\USERS\MATTHEWC\DOWNLOADS\OPENGL+PROJECT+LIGHT3\OPENGL PROJECT\OPENGL PROJECT\RAINBOWTRIANGLE.CPP
^D:\USERS\MATTHEWC\DOWNLOADS\OPENGL+PROJECT+LIGHT3\OPENGL PROJECT\OPENGL PROJECT\SHADER.CPP
/c /ZI /nologo /W3 /WX- /sdl /Od /Oy- /D _MBCS /Gm /EHsc /RTC1 /MDd /GS /fp:precise /Zc:wchar_t /Zc:forScope /Fo"DEBUG\\" /Fd"DEBUG\VC120.PDB" /Gd /TP /analyze- D:\USERS\MATTHEWC\DOWNLOADS\OPENGL+PROJECT+LIGHT3\OPENGL PROJECT\OPENGL PROJECT\SHADER.CPP
^D:\USERS\MATTHEWC\DOWNLOADS\OPENGL+PROJECT+LIGHT3\OPENGL PROJECT\OPENGL PROJECT\GLAD.C
/c /ZI /nologo /W3 /WX- /sdl /Od /Oy- /D _MBCS /Gm /EHsc /RTC1 /MDd /GS /fp:precise /Zc:wchar_t /Zc:forScope /Fo"DEBUG\\" /Fd"DEBUG\VC120.PDB" /Gd /TC /analyze- D:\USERS\MATTHEWC\DOWNLOADS\OPENGL+PROJECT+LIGHT3\OPENGL PROJECT\OPENGL PROJECT\GLAD.C
