^C:\USERS\MATTHEWC\DOCUMENTS\VISUAL STUDIO 2013\PROJECTS\OPENGL PROJECT\OPENGL PROJECT\DEBUG\CUBE.OBJ|C:\USERS\MATTHEWC\DOCUMENTS\VISUAL STUDIO 2013\PROJECTS\OPENGL PROJECT\OPENGL PROJECT\DEBUG\GLAD.OBJ|C:\USERS\MATTHEWC\DOCUMENTS\VISUAL STUDIO 2013\PROJECTS\OPENGL PROJECT\OPENGL PROJECT\DEBUG\MAIN.OBJ|C:\USERS\MATTHEWC\DOCUMENTS\VISUAL STUDIO 2013\PROJECTS\OPENGL PROJECT\OPENGL PROJECT\DEBUG\RAINBOWTRIANGLE.OBJ|C:\USERS\MATTHEWC\DOCUMENTS\VISUAL STUDIO 2013\PROJECTS\OPENGL PROJECT\OPENGL PROJECT\DEBUG\SHADER.OBJ
/OUT:"C:\USERS\MATTHEWC\DOCUMENTS\VISUAL STUDIO 2013\PROJECTS\OPENGL PROJECT\DEBUG\OPENGL PROJECT.EXE" /INCREMENTAL /NOLOGO opengl32.lib glfw3.lib kernel32.lib user32.lib gdi32.lib winspool.lib comdlg32.lib advapi32.lib shell32.lib ole32.lib oleaut32.lib uuid.lib odbc32.lib odbccp32.lib /MANIFEST /MANIFESTUAC:"level='asInvoker' uiAccess='false'" /manifest:embed /DEBUG /PDB:"C:\USERS\MATTHEWC\DOCUMENTS\VISUAL STUDIO 2013\PROJECTS\OPENGL PROJECT\DEBUG\OPENGL PROJECT.PDB" /TLBID:1 /DYNAMICBASE /NXCOMPAT /IMPLIB:"C:\USERS\MATTHEWC\DOCUMENTS\VISUAL STUDIO 2013\PROJECTS\OPENGL PROJECT\DEBUG\OPENGL PROJECT.LIB" /MACHINE:X86 DEBUG\CUBE.OBJDEBUG\GLAD.OBJDEBUG\MAIN.OBJDEBUG\RAINBOWTRIANGLE.OBJDEBUG\SHADER.OBJ
^D:\USERS\MATTHEWC\DOWNLOADS\OPENGL+PROJECT+LIGHT3\OPENGL PROJECT\OPENGL PROJECT\DEBUG\CUBE.OBJ|D:\USERS\MATTHEWC\DOWNLOADS\OPENGL+PROJECT+LIGHT3\OPENGL PROJECT\OPENGL PROJECT\DEBUG\GLAD.OBJ|D:\USERS\MATTHEWC\DOWNLOADS\OPENGL+PROJECT+LIGHT3\OPENGL PROJECT\OPENGL PROJECT\DEBUG\MAIN.OBJ|D:\USERS\MATTHEWC\DOWNLOADS\OPENGL+PROJECT+LIGHT3\OPENGL PROJECT\OPENGL PROJECT\DEBUG\RAINBOWTRIANGLE.OBJ|D:\USERS\MATTHEWC\DOWNLOADS\OPENGL+PROJECT+LIGHT3\OPENGL PROJECT\OPENGL PROJECT\DEBUG\SHADER.OBJ
/OUT:"D:\USERS\MATTHEWC\DOWNLOADS\OPENGL+PROJECT+LIGHT3\OPENGL PROJECT\DEBUG\OPENGL PROJECT.EXE" /INCREMENTAL /NOLOGO opengl32.lib glfw3.lib kernel32.lib user32.lib gdi32.lib winspool.lib comdlg32.lib advapi32.lib shell32.lib ole32.lib oleaut32.lib uuid.lib odbc32.lib odbccp32.lib /MANIFEST /MANIFESTUAC:"level='asInvoker' uiAccess='false'" /manifest:embed /DEBUG /PDB:"D:\USERS\MATTHEWC\DOWNLOADS\OPENGL+PROJECT+LIGHT3\OPENGL PROJECT\DEBUG\OPENGL PROJECT.PDB" /TLBID:1 /DYNAMICBASE /NXCOMPAT /IMPLIB:"D:\USERS\MATTHEWC\DOWNLOADS\OPENGL+PROJECT+LIGHT3\OPENGL PROJECT\DEBUG\OPENGL PROJECT.LIB" /MACHINE:X86 DEBUG\CUBE.OBJDEBUG\GLAD.OBJDEBUG\MAIN.OBJDEBUG\RAINBOWTRIANGLE.OBJDEBUG\SHADER.OBJ
