^C:\USERS\MATTHEWC\DOCUMENTS\VISUAL STUDIO 2013\PROJECTS\OPENGL PROJECT\OPENGL PROJECT\MAIN.CPP
C:\USERS\MATTHEWC\DOCUMENTS\VISUAL STUDIO 2013\PROJECTS\OPENGL PROJECT\OPENGL PROJECT\DEBUG\VC120.PDB
C:\USERS\MATTHEWC\DOCUMENTS\VISUAL STUDIO 2013\PROJECTS\OPENGL PROJECT\OPENGL PROJECT\DEBUG\VC120.IDB
C:\USERS\MATTHEWC\DOCUMENTS\VISUAL STUDIO 2013\PROJECTS\OPENGL PROJECT\OPENGL PROJECT\DEBUG\MAIN.OBJ
^C:\USERS\MATTHEWC\DOCUMENTS\VISUAL STUDIO 2013\PROJECTS\OPENGL PROJECT\OPENGL PROJECT\GLAD.C
C:\USERS\MATTHEWC\DOCUMENTS\VISUAL STUDIO 2013\PROJECTS\OPENGL PROJECT\OPENGL PROJECT\DEBUG\VC120.PDB
C:\USERS\MATTHEWC\DOCUMENTS\VISUAL STUDIO 2013\PROJECTS\OPENGL PROJECT\OPENGL PROJECT\DEBUG\VC120.IDB
C:\USERS\MATTHEWC\DOCUMENTS\VISUAL STUDIO 2013\PROJECTS\OPENGL PROJECT\OPENGL PROJECT\DEBUG\GLAD.OBJ
^C:\USERS\MATTHEWC\DOCUMENTS\VISUAL STUDIO 2013\PROJECTS\OPENGL PROJECT\OPENGL PROJECT\MAIN.CPP|C:\USERS\MATTHEWC\DOCUMENTS\VISUAL STUDIO 2013\PROJECTS\OPENGL PROJECT\OPENGL PROJECT\SHADER.CPP
C:\USERS\MATTHEWC\DOCUMENTS\VISUAL STUDIO 2013\PROJECTS\OPENGL PROJECT\OPENGL PROJECT\DEBUG\VC120.PDB
C:\USERS\MATTHEWC\DOCUMENTS\VISUAL STUDIO 2013\PROJECTS\OPENGL PROJECT\OPENGL PROJECT\DEBUG\VC120.IDB
C:\USERS\MATTHEWC\DOCUMENTS\VISUAL STUDIO 2013\PROJECTS\OPENGL PROJECT\OPENGL PROJECT\DEBUG\MAIN.OBJ
C:\USERS\MATTHEWC\DOCUMENTS\VISUAL STUDIO 2013\PROJECTS\OPENGL PROJECT\OPENGL PROJECT\DEBUG\SHADER.OBJ
^C:\USERS\MATTHEWC\DOCUMENTS\VISUAL STUDIO 2013\PROJECTS\OPENGL PROJECT\OPENGL PROJECT\SHADER.CPP
C:\USERS\MATTHEWC\DOCUMENTS\VISUAL STUDIO 2013\PROJECTS\OPENGL PROJECT\OPENGL PROJECT\DEBUG\VC120.PDB
^C:\USERS\MATTHEWC\DOCUMENTS\VISUAL STUDIO 2013\PROJECTS\OPENGL PROJECT\OPENGL PROJECT\MAIN.CPP|C:\USERS\MATTHEWC\DOCUMENTS\VISUAL STUDIO 2013\PROJECTS\OPENGL PROJECT\OPENGL PROJECT\RAINBOWTRIANGLE.CPP
C:\USERS\MATTHEWC\DOCUMENTS\VISUAL STUDIO 2013\PROJECTS\OPENGL PROJECT\OPENGL PROJECT\DEBUG\VC120.PDB
C:\USERS\MATTHEWC\DOCUMENTS\VISUAL STUDIO 2013\PROJECTS\OPENGL PROJECT\OPENGL PROJECT\DEBUG\VC120.IDB
C:\USERS\MATTHEWC\DOCUMENTS\VISUAL STUDIO 2013\PROJECTS\OPENGL PROJECT\OPENGL PROJECT\DEBUG\MAIN.OBJ
C:\USERS\MATTHEWC\DOCUMENTS\VISUAL STUDIO 2013\PROJECTS\OPENGL PROJECT\OPENGL PROJECT\DEBUG\RAINBOWTRIANGLE.OBJ
^C:\USERS\MATTHEWC\DOCUMENTS\VISUAL STUDIO 2013\PROJECTS\OPENGL PROJECT\OPENGL PROJECT\RAINBOWTRIANGLE.CPP
C:\USERS\MATTHEWC\DOCUMENTS\VISUAL STUDIO 2013\PROJECTS\OPENGL PROJECT\OPENGL PROJECT\DEBUG\VC120.PDB
