^C:\USERS\MATTHEWC\DOCUMENTS\VISUAL STUDIO 2013\PROJECTS\OPENGL PROJECT\OPENGL PROJECT\DEBUG\GLAD.OBJ|C:\USERS\MATTHEWC\DOCUMENTS\VISUAL STUDIO 2013\PROJECTS\OPENGL PROJECT\OPENGL PROJECT\DEBUG\MAIN.OBJ|C:\USERS\MATTHEWC\DOCUMENTS\VISUAL STUDIO 2013\PROJECTS\OPENGL PROJECT\OPENGL PROJECT\DEBUG\RAINBOWTRIANGLE.OBJ|C:\USERS\MATTHEWC\DOCUMENTS\VISUAL STUDIO 2013\PROJECTS\OPENGL PROJECT\OPENGL PROJECT\DEBUG\SHADER.OBJ
C:\PROGRAM FILES (X86)\WINDOWS KITS\8.1\LIB\WINV6.3\UM\X86\OPENGL32.LIB
C:\GLFW\LIB-VC2013\GLFW3.LIB
C:\PROGRAM FILES (X86)\WINDOWS KITS\8.1\LIB\WINV6.3\UM\X86\KERNEL32.LIB
C:\PROGRAM FILES (X86)\WINDOWS KITS\8.1\LIB\WINV6.3\UM\X86\USER32.LIB
C:\PROGRAM FILES (X86)\WINDOWS KITS\8.1\LIB\WINV6.3\UM\X86\GDI32.LIB
C:\PROGRAM FILES (X86)\WINDOWS KITS\8.1\LIB\WINV6.3\UM\X86\WINSPOOL.LIB
C:\PROGRAM FILES (X86)\WINDOWS KITS\8.1\LIB\WINV6.3\UM\X86\COMDLG32.LIB
C:\PROGRAM FILES (X86)\WINDOWS KITS\8.1\LIB\WINV6.3\UM\X86\ADVAPI32.LIB
C:\PROGRAM FILES (X86)\WINDOWS KITS\8.1\LIB\WINV6.3\UM\X86\SHELL32.LIB
C:\PROGRAM FILES (X86)\WINDOWS KITS\8.1\LIB\WINV6.3\UM\X86\OLE32.LIB
C:\PROGRAM FILES (X86)\WINDOWS KITS\8.1\LIB\WINV6.3\UM\X86\OLEAUT32.LIB
C:\PROGRAM FILES (X86)\WINDOWS KITS\8.1\LIB\WINV6.3\UM\X86\UUID.LIB
C:\PROGRAM FILES (X86)\WINDOWS KITS\8.1\LIB\WINV6.3\UM\X86\ODBC32.LIB
C:\PROGRAM FILES (X86)\WINDOWS KITS\8.1\LIB\WINV6.3\UM\X86\ODBCCP32.LIB
C:\USERS\MATTHEWC\DOCUMENTS\VISUAL STUDIO 2013\PROJECTS\OPENGL PROJECT\OPENGL PROJECT\DEBUG\GLAD.OBJ
C:\USERS\MATTHEWC\DOCUMENTS\VISUAL STUDIO 2013\PROJECTS\OPENGL PROJECT\OPENGL PROJECT\DEBUG\MAIN.OBJ
C:\USERS\MATTHEWC\DOCUMENTS\VISUAL STUDIO 2013\PROJECTS\OPENGL PROJECT\OPENGL PROJECT\DEBUG\RAINBOWTRIANGLE.OBJ
C:\USERS\MATTHEWC\DOCUMENTS\VISUAL STUDIO 2013\PROJECTS\OPENGL PROJECT\OPENGL PROJECT\DEBUG\SHADER.OBJ
C:\PROGRAM FILES (X86)\MICROSOFT VISUAL STUDIO 12.0\VC\BIN\MSPDB120.DLL
C:\WINDOWS\SYSTEM32\TZRES.DLL
C:\WINDOWS\GLOBALIZATION\SORTING\SORTDEFAULT.NLS
C:\PROGRAM FILES (X86)\MICROSOFT VISUAL STUDIO 12.0\VC\LIB\MSVCRTD.LIB
C:\PROGRAM FILES (X86)\MICROSOFT VISUAL STUDIO 12.0\VC\LIB\OLDNAMES.LIB
C:\PROGRAM FILES (X86)\MICROSOFT VISUAL STUDIO 12.0\VC\LIB\MSVCPRTD.LIB
C:\PROGRAM FILES (X86)\MICROSOFT VISUAL STUDIO 12.0\VC\LIB\MSVCRT.LIB
